<?xml version="1.0" encoding="utf-8"?>
<!-- Generator: Adobe Illustrator 27.4.1, SVG Export Plug-In . SVG Version: 6.00 Build 0)  -->
<svg version="1.1" id="Layer_1" xmlns="http://www.w3.org/2000/svg" xmlns:xlink="http://www.w3.org/1999/xlink" x="0px" y="0px"
	 viewBox="0 0 800 800" style="enable-background:new 0 0 800 800;" xml:space="preserve">
<style type="text/css">
	.st0{fill:#010101;}
</style>
<polygon class="st0" points="787,120.4 715.7,120.4 684.8,170.5 684.9,170.6 410,613.1 152.4,212.5 153,211.9 153,211.9 153,211.9 
	153.5,211.4 154,211.9 591.7,177.3 626.8,120.4 13,120.4 12.2,119.7 11.5,120.4 11.5,120.4 11.5,120.4 10.8,121.1 400,790.3 
	789.2,121.1 787.8,119.7 "/>
</svg>
