<?xml version="1.0" encoding="UTF-8"?>
<svg width="1200pt" height="1200pt" version="1.1" viewBox="0 0 1200 1200" xmlns="http://www.w3.org/2000/svg">
 <g>
  <path d="m326.51 851.51-251.51-251.51 251.51-251.51c7.0312-7.0312 16.57-10.984 26.516-10.984 9.9453 0 19.484 3.9531 26.516 10.984l53.027 53.027c7.0312 7.0312 10.984 16.57 10.984 26.516s-3.9531 19.484-10.984 26.516l-145.46 145.45 145.46 145.46c7.0312 7.0312 10.984 16.57 10.984 26.516 0 9.9453-3.9531 19.484-10.984 26.516l-53.027 53.027c-7.0312 7.0312-16.57 10.98-26.516 10.98-9.9414-0.003906-19.48-3.9531-26.512-10.984z"/>
  <path d="m820.46 851.51-53.027-53.027c-7.0312-7.0312-10.98-16.57-10.98-26.516s3.9492-19.484 10.98-26.516l145.46-145.45-145.46-145.46c-7.0312-7.0312-10.984-16.57-10.984-26.516 0-9.9453 3.9531-19.484 10.984-26.516l53.027-53.027c7.0312-7.0312 16.57-10.984 26.516-10.984 9.9453 0 19.484 3.9531 26.516 10.984l251.51 251.52-251.51 251.51c-7.0312 7.0312-16.57 10.984-26.516 10.984-9.9453 0-19.484-3.9531-26.516-10.984z"/>
  <path d="m567.21 1050h-71.914c-11.023 0-21.488-4.8516-28.613-13.262-7.125-8.4102-10.188-19.531-8.3789-30.402l137.5-825c1.4609-8.7578 5.9805-16.711 12.754-22.449 6.7734-5.7383 15.359-8.8867 24.238-8.8867h71.914c11.023 0 21.488 4.8516 28.613 13.262 7.125 8.4102 10.188 19.531 8.3789 30.402l-137.5 825c-1.4609 8.7578-5.9805 16.711-12.754 22.449-6.7734 5.7383-15.359 8.8867-24.238 8.8867z"/>
 </g>
</svg>
