<?xml version="1.0" encoding="UTF-8"?>
<svg width="1200pt" height="1200pt" version="1.1" viewBox="0 0 1200 1200" xmlns="http://www.w3.org/2000/svg">
 <g fill-rule="evenodd">
  <path d="m187.5 470.84h175v-100h-175c-55.227 0-100 44.773-100 100v508.34c0 19.398 11.223 37.047 28.793 45.277 17.57 8.2305 38.312 5.5508 53.215-6.8711l136.09-113.41h381.9c55.23 0 100-44.773 100-100v-41.668h-100v41.668h-400c-11.695 0-23.023 4.0977-32.008 11.59l-67.992 56.66z"/>
  <path d="m512.5 170.84c-55.227 0-100 44.773-100 100v333.34c0 55.227 44.773 100 100 100h381.9l136.09 113.41c14.906 12.422 35.652 15.102 53.223 6.8711 17.562-8.2305 28.789-25.879 28.789-45.277v-508.34c0-55.227-44.77-100-100-100z"/>
 </g>
</svg>
