<?xml version="1.0" encoding="UTF-8"?>
<svg width="1200pt" height="1200pt" version="1.1" viewBox="0 0 1200 1200" xmlns="http://www.w3.org/2000/svg">
 <path d="m550 1150h100v-400h-100zm0-700h100v-400h-100zm200 200h400v-100h-400zm-700 0h400v-100h-400zm600-50c0 27.648-22.352 50-50 50s-50-22.352-50-50 22.352-50 50-50 50 22.352 50 50z" fill-rule="evenodd"/>
</svg>
