<?xml version="1.0" encoding="UTF-8"?>
<svg width="1200pt" height="1200pt" version="1.1" viewBox="0 0 1200 1200" xmlns="http://www.w3.org/2000/svg">
 <defs>
  <clipPath id="a">
   <path d="m406 222.14h388v755.71h-388z"/>
  </clipPath>
 </defs>
 <g clip-path="url(#a)">
  <path d="m436.81 335.81c-3.7891 15.602-5.0586 38.039-5.0586 55.129-0.10156 115.86-0.11328 231.71-0.035156 347.57 0 1.6328-0.90625 3.5898-2.7148 5.8711-17.359 21.598-24.824 46.398-22.398 74.406 0.11328 1.4492 1.1484 2.6758 2.5977 2.9766l6.5 1.4062c1.375 0.33594 2.75-0.58984 3.0117-2.0039 2.8984-17.387 2.8242-37.934 19.836-48.816 1.0039-0.63281 2.2305-0.84766 3.3828-0.55078 22.066 5.7969 21.25 29.641 23.441 47.879 0.18359 1.375 1.375 2.418 2.7852 2.3789l7.2422-0.26172c1.4492-0.035157 2.6016-1.1133 2.7852-2.5625 3.2461-27.391-4.2734-50.809-22.551-70.25-3.8633-4.1602-6.0898-6.3867-5.9414-12.48 2.2031-91.512 5.1016-202.55 15.188-246.91 10.086-44.355 14.203-13.438 15.316-6.3789 11.715 75.191 23.391 150.38 35.031 225.57 3.2305 20.953 31.117 261.42 22.094 268.27-0.70703 1.375 36.656 0.56641 36.656 0.56641-2.2031-10.898 3.7578-299.69 8.1914-353.98-0.54688-26.199 33.277-36.215 35.656 0 4.4336 54.289 10.395 343.08 8.1914 353.98 0 0 37.363 0.80859 36.656-0.56641-9.0234-6.8438 18.863-247.31 22.094-268.27 11.641-75.191 23.316-150.38 35.031-225.57 1.1133-7.0586 5.2305-37.977 15.316 6.3789 10.086 44.355 12.98 155.4 15.188 246.91 0.14844 6.0938-2.0781 8.3203-5.9414 12.48-18.277 19.441-25.797 42.859-22.551 70.25 0.18359 1.4492 1.3359 2.5234 2.7852 2.5625l7.2422 0.26172c1.4102 0.035156 2.6016-1.0039 2.7852-2.3789 2.1914-18.242 1.375-42.086 23.441-47.879 1.1523-0.29688 2.3789-0.078125 3.3828 0.55078 17.016 10.883 16.941 31.43 19.836 48.816 0.26172 1.4102 1.6367 2.3359 3.0117 2.0039l6.5-1.4062c1.4492-0.29688 2.4844-1.5273 2.5977-2.9766 2.4258-28.012-5.0391-52.812-22.398-74.406-1.8086-2.2773-2.7148-4.2344-2.7148-5.8711 0.074219-115.86 0.0625-231.71-0.035156-347.57 0-17.09-1.2695-39.527-5.0586-55.129-18.164-74.625-88.176-113.67-163.19-113.67s-145.03 39.043-163.19 113.67zm162.52-64.766v0.050781c0.22266-0.003906 0.44531-0.023438 0.66797-0.035156 0.21875 0.015625 0.44531 0.035156 0.66797 0.035156v-0.050781c21.176-0.28516 42.621 4.8203 61.668 15.695 58.547 33.434 78.086 124.19 14.266 164.12-21.367 13.367-49.047 19.734-76.598 19.301-27.551 0.43359-55.23-5.9336-76.598-19.301-63.824-39.934-44.281-130.69 14.266-164.12 19.043-10.875 40.492-15.977 61.668-15.695zm-55.164 80.039c-16.965 0-30.719 13.754-30.719 30.719 0 16.965 13.754 30.719 30.719 30.719 16.969 0.003907 30.727-13.75 30.727-30.719 0.003907-16.719-13.367-30.371-30.082-30.719-0.21484-0.003906-0.42969-0.003906-0.64453 0zm111.02 0c-16.715 0.34766-30.086 14-30.082 30.719 0 16.969 13.758 30.723 30.727 30.719 16.965 0 30.719-13.754 30.719-30.719 0-16.965-13.754-30.719-30.719-30.719-0.21484-0.003906-0.42969-0.003906-0.64453 0z"/>
 </g>
</svg>
