<?xml version="1.0" encoding="UTF-8"?>
<svg width="1200pt" height="1200pt" version="1.1" viewBox="0 0 1200 1200" xmlns="http://www.w3.org/2000/svg">
 <g>
  <path d="m525 75h75v300h-300v-75c0-124.27 100.73-225 225-225z"/>
  <path d="m675 375h300v-75c0-124.27-100.73-225-225-225h-75zm75-225c82.727 0 150 67.273 150 150h-150z"/>
  <path d="m975 787.5c0 186.38-151.12 337.5-337.5 337.5s-337.5-151.12-337.5-337.5v-337.5h675z"/>
 </g>
</svg>
