<?xml version="1.0" encoding="UTF-8"?>
<svg width="1200pt" height="1200pt" version="1.1" viewBox="0 0 1200 1200" xmlns="http://www.w3.org/2000/svg">
 <path d="m991.2 186h-782.4c-98.398 0-178.8 80.398-178.8 178.8v470.4c0 98.398 80.398 178.8 178.8 178.8h783.6c98.398 0 178.8-80.398 178.8-178.8l-0.003906-470.4c-1.1992-98.402-81.598-178.8-180-178.8zm-230.4 468-247.2 123.6c-40.801 20.398-87.602-9.6016-87.602-54v-247.2c0-45.602 48-74.398 87.602-54l247.2 123.6c44.398 21.602 44.398 86.398 0 108z"/>
</svg>
