[
  {
    "name": "actions/Angry Grunt1.wav",
    "offset": 0,
    "duration": 0.6517460317460317
  },
  {
    "name": "actions/Angry Grunt10.wav",
    "offset": 0.6517460317460317,
    "duration": 0.8194784580498866
  },
  {
    "name": "actions/Angry Grunt11.wav",
    "offset": 1.4712244897959184,
    "duration": 0.6148526077097506
  },
  {
    "name": "actions/Angry Grunt12.wav",
    "offset": 2.086077097505669,
    "duration": 0.6407936507936508
  },
  {
    "name": "actions/Angry Grunt13.wav",
    "offset": 2.7268707482993197,
    "duration": 0.6745351473922903
  },
  {
    "name": "actions/Angry Grunt14.wav",
    "offset": 3.4014058956916102,
    "duration": 0.6198639455782313
  },
  {
    "name": "actions/Angry Grunt15.wav",
    "offset": 4.0212698412698415,
    "duration": 0.5136734693877552
  },
  {
    "name": "actions/Angry Grunt16.wav",
    "offset": 4.534943310657597,
    "duration": 0.30517006802721086
  },
  {
    "name": "actions/Angry Grunt2.wav",
    "offset": 4.840113378684808,
    "duration": 0.3737641723356009
  },
  {
    "name": "actions/Angry Grunt3.wav",
    "offset": 5.213877551020408,
    "duration": 0.4001360544217687
  },
  {
    "name": "actions/Angry Grunt4.wav",
    "offset": 5.614013605442176,
    "duration": 0.42063492063492064
  },
  {
    "name": "actions/Angry Grunt5.wav",
    "offset": 6.034648526077097,
    "duration": 0.5065759637188209
  },
  {
    "name": "actions/Angry Grunt6.wav",
    "offset": 6.541224489795918,
    "duration": 0.676031746031746
  },
  {
    "name": "actions/Angry Grunt7.wav",
    "offset": 7.217256235827664,
    "duration": 0.5518140589569162
  },
  {
    "name": "actions/Angry Grunt8.wav",
    "offset": 7.76907029478458,
    "duration": 0.402312925170068
  },
  {
    "name": "actions/Angry Grunt9.wav",
    "offset": 8.171383219954649,
    "duration": 0.7592743764172336
  },
  {
    "name": "actions/Attack Grunt1.wav",
    "offset": 8.930657596371882,
    "duration": 0.20383219954648527
  },
  {
    "name": "actions/Attack Grunt2.wav",
    "offset": 9.134489795918366,
    "duration": 0.28
  },
  {
    "name": "actions/Attack Grunt3.wav",
    "offset": 9.414489795918366,
    "duration": 0.24095238095238095
  },
  {
    "name": "actions/Attack Grunt4.wav",
    "offset": 9.655442176870746,
    "duration": 0.42845804988662134
  },
  {
    "name": "actions/Attack Grunt5.wav",
    "offset": 10.083900226757368,
    "duration": 0.33471655328798183
  },
  {
    "name": "actions/Attack Grunt6.wav",
    "offset": 10.41861678004535,
    "duration": 0.401609977324263
  },
  {
    "name": "actions/Attack Grunt7.wav",
    "offset": 10.820226757369612,
    "duration": 0.31519274376417233
  },
  {
    "name": "actions/Attack Grunt8.wav",
    "offset": 11.135419501133784,
    "duration": 0.43047619047619046
  },
  {
    "name": "actions/Scream.wav",
    "offset": 11.565895691609974,
    "duration": 1.6832879818594104
  },
  {
    "name": "actions/Scream2.wav",
    "offset": 13.249183673469384,
    "duration": 1.6496825396825396
  },
  {
    "name": "actions/Scream3.wav",
    "offset": 14.898866213151923,
    "duration": 1.2175056689342403
  },
  {
    "name": "actions/Scream4.wav",
    "offset": 16.116371882086163,
    "duration": 1.6903628117913831
  },
  {
    "name": "actions/Scream5.wav",
    "offset": 17.806734693877548,
    "duration": 2.7018820861678003
  },
  {
    "name": "actions/Scream6.wav",
    "offset": 20.508616780045347,
    "duration": 0.9271882086167801
  },
  {
    "name": "actions/shishigasp1.wav",
    "offset": 21.435804988662127,
    "duration": 0.7175056689342404
  },
  {
    "name": "actions/shishigasp2.wav",
    "offset": 22.153310657596368,
    "duration": 0.78
  },
  {
    "name": "actions/shishigasp3.wav",
    "offset": 22.93331065759637,
    "duration": 0.49875283446712015
  },
  {
    "name": "actions/shishigasp4.wav",
    "offset": 23.432063492063488,
    "duration": 0.8424943310657597
  },
  {
    "name": "actions/shishigasp5.wav",
    "offset": 24.274557823129246,
    "duration": 0.7487528344671202
  },
  {
    "name": "actions/shishigasp6.wav",
    "offset": 25.023310657596365,
    "duration": 0.46750566893424034
  },
  {
    "name": "actions/shishigasp7.wav",
    "offset": 25.490816326530606,
    "duration": 0.6862585034013605
  },
  {
    "name": "actions/shishihurt1.wav",
    "offset": 26.177074829931968,
    "duration": 0.53
  },
  {
    "name": "actions/shishihurt2.wav",
    "offset": 26.70707482993197,
    "duration": 0.3431519274376417
  },
  {
    "name": "actions/shishihurt3.wav",
    "offset": 27.05022675736961,
    "duration": 0.40551020408163263
  },
  {
    "name": "actions/shishihurt4.wav",
    "offset": 27.455736961451244,
    "duration": 0.4050113378684807
  },
  {
    "name": "actions/shishihurt5.wav",
    "offset": 27.860748299319724,
    "duration": 0.28718820861678007
  },
  {
    "name": "actions/shishihurt6.wav",
    "offset": 28.147936507936503,
    "duration": 0.3663718820861678
  },
  {
    "name": "actions/shishijump1.wav",
    "offset": 28.51430839002267,
    "duration": 0.25090702947845805
  },
  {
    "name": "actions/shishijump2.wav",
    "offset": 28.76521541950113,
    "duration": 0.20578231292517007
  },
  {
    "name": "actions/shishijump3.wav",
    "offset": 28.970997732426298,
    "duration": 0.15891156462585035
  },
  {
    "name": "actions/shishijump4.wav",
    "offset": 29.129909297052148,
    "duration": 0.18430839002267574
  },
  {
    "name": "actions/shishijump5.wav",
    "offset": 29.314217687074823,
    "duration": 0.1852154195011338
  },
  {
    "name": "actions/shishijump6.wav",
    "offset": 29.499433106575957,
    "duration": 0.1717233560090703
  },
  {
    "name": "actions/shishilanding1.wav",
    "offset": 29.671156462585028,
    "duration": 0.6393877551020408
  },
  {
    "name": "actions/shishilanding2.wav",
    "offset": 30.31054421768707,
    "duration": 0.42063492063492064
  },
  {
    "name": "actions/shishilanding3.wav",
    "offset": 30.73117913832199,
    "duration": 0.39852607709750565
  },
  {
    "name": "actions/shishilanding4.wav",
    "offset": 31.1297052154195,
    "duration": 0.2578458049886621
  },
  {
    "name": "actions/shishilanding5.wav",
    "offset": 31.38755102040816,
    "duration": 0.5612471655328798
  },
  {
    "name": "actions/shishilanding6.wav",
    "offset": 31.94879818594104,
    "duration": 0.53
  },
  {
    "name": "actions/shishinr1.wav",
    "offset": 32.47879818594104,
    "duration": 0.24875283446712018
  },
  {
    "name": "actions/shishinr2.wav",
    "offset": 32.72755102040816,
    "duration": 0.24875283446712018
  },
  {
    "name": "actions/shishinr3.wav",
    "offset": 32.976303854875276,
    "duration": 0.28
  },
  {
    "name": "actions/shishinr4.wav",
    "offset": 33.25630385487528,
    "duration": 0.28
  },
  {
    "name": "actions/shishinr5.wav",
    "offset": 33.53630385487528,
    "duration": 0.21750566893424036
  },
  {
    "name": "emotes/shishialert1.wav",
    "offset": 33.753809523809515,
    "duration": 0.38936507936507936
  },
  {
    "name": "emotes/shishialert2.wav",
    "offset": 34.14317460317459,
    "duration": 0.4050113378684807
  },
  {
    "name": "emotes/shishialert3.wav",
    "offset": 34.54818594104307,
    "duration": 0.4050113378684807
  },
  {
    "name": "emotes/shishialert4.wav",
    "offset": 34.95319727891155,
    "duration": 0.31124716553287984
  },
  {
    "name": "emotes/shishiangryem1.wav",
    "offset": 35.264444444444436,
    "duration": 1.3424943310657595
  },
  {
    "name": "emotes/shishiangryem10.wav",
    "offset": 36.606938775510194,
    "duration": 0.49875283446712015
  },
  {
    "name": "emotes/shishiangryem2.wav",
    "offset": 37.10569160997731,
    "duration": 0.6862585034013605
  },
  {
    "name": "emotes/shishiangryem3.wav",
    "offset": 37.791950113378675,
    "duration": 0.6549886621315193
  },
  {
    "name": "emotes/shishiangryem4.wav",
    "offset": 38.4469387755102,
    "duration": 0.9050113378684808
  },
  {
    "name": "emotes/shishiangryem5.wav",
    "offset": 39.35195011337868,
    "duration": 0.5612471655328798
  },
  {
    "name": "emotes/shishiangryem6.wav",
    "offset": 39.91319727891156,
    "duration": 0.6549886621315193
  },
  {
    "name": "emotes/shishiangryem7.wav",
    "offset": 40.56818594104308,
    "duration": 0.53
  },
  {
    "name": "emotes/shishiangryem8.wav",
    "offset": 41.098185941043084,
    "duration": 0.9050113378684808
  },
  {
    "name": "emotes/shishiangryem9.wav",
    "offset": 42.003197278911564,
    "duration": 0.5612471655328798
  },
  {
    "name": "emotes/shishiemba1.wav",
    "offset": 42.56444444444445,
    "duration": 1.7721768707482992
  },
  {
    "name": "emotes/shishiemba2.wav",
    "offset": 44.336621315192744,
    "duration": 1.9362585034013606
  },
  {
    "name": "emotes/shishiemba3.wav",
    "offset": 46.272879818594106,
    "duration": 1.78
  },
  {
    "name": "emotes/shishiemba4.wav",
    "offset": 48.05287981859411,
    "duration": 2.0924943310657595
  },
  {
    "name": "emotes/shishiemba5.wav",
    "offset": 50.145374149659865,
    "duration": 2.3112471655328797
  },
  {
    "name": "emotes/shishiemba6.wav",
    "offset": 52.45662131519275,
    "duration": 2.0612471655328797
  },
  {
    "name": "emotes/shishinod1.wav",
    "offset": 54.517868480725625,
    "duration": 0.4831292517006803
  },
  {
    "name": "emotes/shishinod2.wav",
    "offset": 55.000997732426306,
    "duration": 0.7643764172335601
  },
  {
    "name": "emotes/shishinod3.wav",
    "offset": 55.76537414965986,
    "duration": 0.6706349206349206
  },
  {
    "name": "emotes/shishinod4.wav",
    "offset": 56.43600907029478,
    "duration": 0.28
  },
  {
    "name": "emotes/shishinod5.wav",
    "offset": 56.71600907029478,
    "duration": 0.46750566893424034
  },
  {
    "name": "emotes/shishinod6.wav",
    "offset": 57.18351473922902,
    "duration": 0.5221768707482993
  },
  {
    "name": "emotes/shishisad1.wav",
    "offset": 57.705691609977315,
    "duration": 0.8268707482993197
  },
  {
    "name": "emotes/shishisad2.wav",
    "offset": 58.532562358276635,
    "duration": 0.8893650793650794
  },
  {
    "name": "emotes/shishisad3.wav",
    "offset": 59.42192743764171,
    "duration": 1.31124716553288
  },
  {
    "name": "emotes/shishisad4.wav",
    "offset": 60.7331746031746,
    "duration": 1.5378231292517006
  },
  {
    "name": "emotes/shishisad5.wav",
    "offset": 62.270997732426295,
    "duration": 0.7487528344671202
  },
  {
    "name": "emotes/shishisad6.wav",
    "offset": 63.019750566893414,
    "duration": 1.1549886621315193
  },
  {
    "name": "emotes/shishisad7.wav",
    "offset": 64.17473922902494,
    "duration": 1.6237414965986394
  },
  {
    "name": "emotes/shishisad8.wav",
    "offset": 65.79848072562358,
    "duration": 0.9050113378684808
  },
  {
    "name": "emotes/shishishake1.wav",
    "offset": 66.70349206349206,
    "duration": 0.5534467120181406
  },
  {
    "name": "emotes/shishishake2.wav",
    "offset": 67.2569387755102,
    "duration": 0.6393650793650794
  },
  {
    "name": "emotes/shishishake3.wav",
    "offset": 67.89630385487528,
    "duration": 0.5534467120181406
  },
  {
    "name": "emotes/shishishake4.wav",
    "offset": 68.44975056689343,
    "duration": 0.6081179138321996
  },
  {
    "name": "emotes/shishishake5.wav",
    "offset": 69.05786848072563,
    "duration": 0.5143764172335601
  },
  {
    "name": "emotes/shishisurprise1.wav",
    "offset": 69.5722448979592,
    "duration": 0.6862585034013605
  },
  {
    "name": "emotes/shishisurprise2.wav",
    "offset": 70.25850340136056,
    "duration": 0.45188208616780046
  },
  {
    "name": "emotes/shishisurprise3.wav",
    "offset": 70.71038548752836,
    "duration": 0.6393650793650794
  },
  {
    "name": "emotes/shishisurprise4.wav",
    "offset": 71.34975056689343,
    "duration": 0.39718820861678006
  },
  {
    "name": "emotes/shishisurprise5.wav",
    "offset": 71.74693877551022,
    "duration": 0.4909297052154195
  },
  {
    "name": "emotes/shishivictory1.wav",
    "offset": 72.23786848072564,
    "duration": 0.9987528344671202
  },
  {
    "name": "emotes/shishivictory2.wav",
    "offset": 73.23662131519276,
    "duration": 0.9206349206349206
  },
  {
    "name": "emotes/shishivictory3.wav",
    "offset": 74.15725623582769,
    "duration": 0.9831292517006802
  },
  {
    "name": "emotes/shishivictory4.wav",
    "offset": 75.14038548752836,
    "duration": 1.1862585034013606
  },
  {
    "name": "emotes/shishivictory5.wav",
    "offset": 76.32664399092972,
    "duration": 1.04562358276644
  },
  {
    "name": "emotes/shishivictory6.wav",
    "offset": 77.37226757369616,
    "duration": 1.06124716553288
  },
  {
    "name": "syllables/1.wav",
    "offset": 78.43351473922904,
    "duration": 0.24095238095238095
  },
  {
    "name": "syllables/10.wav",
    "offset": 78.67446712018142,
    "duration": 0.23312925170068027
  },
  {
    "name": "syllables/100.wav",
    "offset": 78.9075963718821,
    "duration": 0.21750566893424036
  },
  {
    "name": "syllables/101.wav",
    "offset": 79.12510204081633,
    "duration": 0.28
  },
  {
    "name": "syllables/102.wav",
    "offset": 79.40510204081633,
    "duration": 0.24875283446712018
  },
  {
    "name": "syllables/103.wav",
    "offset": 79.65385487528346,
    "duration": 0.34251700680272107
  },
  {
    "name": "syllables/104.wav",
    "offset": 79.99637188208618,
    "duration": 0.3620408163265306
  },
  {
    "name": "syllables/105.wav",
    "offset": 80.3584126984127,
    "duration": 0.2917233560090703
  },
  {
    "name": "syllables/106.wav",
    "offset": 80.65013605442178,
    "duration": 0.25267573696145124
  },
  {
    "name": "syllables/107.wav",
    "offset": 80.90281179138323,
    "duration": 0.21750566893424036
  },
  {
    "name": "syllables/108.wav",
    "offset": 81.12031746031747,
    "duration": 0.31126984126984125
  },
  {
    "name": "syllables/109.wav",
    "offset": 81.43158730158731,
    "duration": 0.15501133786848073
  },
  {
    "name": "syllables/11.wav",
    "offset": 81.5865986394558,
    "duration": 0.20188208616780046
  },
  {
    "name": "syllables/110.wav",
    "offset": 81.7884807256236,
    "duration": 0.2682993197278912
  },
  {
    "name": "syllables/111.wav",
    "offset": 82.05678004535149,
    "duration": 0.15501133786848073
  },
  {
    "name": "syllables/112.wav",
    "offset": 82.21179138321997,
    "duration": 0.2643764172335601
  },
  {
    "name": "syllables/113.wav",
    "offset": 82.47616780045354,
    "duration": 0.21750566893424036
  },
  {
    "name": "syllables/114.wav",
    "offset": 82.69367346938778,
    "duration": 0.24875283446712018
  },
  {
    "name": "syllables/115.wav",
    "offset": 82.9424263038549,
    "duration": 0.23312925170068027
  },
  {
    "name": "syllables/116.wav",
    "offset": 83.17555555555558,
    "duration": 0.2643764172335601
  },
  {
    "name": "syllables/117.wav",
    "offset": 83.43993197278914,
    "duration": 0.25657596371882085
  },
  {
    "name": "syllables/118.wav",
    "offset": 83.69650793650796,
    "duration": 0.34251700680272107
  },
  {
    "name": "syllables/119.wav",
    "offset": 84.03902494331068,
    "duration": 0.2643764172335601
  },
  {
    "name": "syllables/12.wav",
    "offset": 84.30340136054424,
    "duration": 0.15501133786848073
  },
  {
    "name": "syllables/120.wav",
    "offset": 84.45841269841273,
    "duration": 0.23312925170068027
  },
  {
    "name": "syllables/121.wav",
    "offset": 84.6915419501134,
    "duration": 0.1628344671201814
  },
  {
    "name": "syllables/122.wav",
    "offset": 84.85437641723358,
    "duration": 0.17063492063492064
  },
  {
    "name": "syllables/123.wav",
    "offset": 85.0250113378685,
    "duration": 0.15501133786848073
  },
  {
    "name": "syllables/124.wav",
    "offset": 85.18002267573699,
    "duration": 0.23312925170068027
  },
  {
    "name": "syllables/125.wav",
    "offset": 85.41315192743767,
    "duration": 0.2643764172335601
  },
  {
    "name": "syllables/126.wav",
    "offset": 85.67752834467123,
    "duration": 0.24875283446712018
  },
  {
    "name": "syllables/127.wav",
    "offset": 85.92628117913836,
    "duration": 0.20188208616780046
  },
  {
    "name": "syllables/128.wav",
    "offset": 86.12816326530616,
    "duration": 0.2643764172335601
  },
  {
    "name": "syllables/129.wav",
    "offset": 86.39253968253972,
    "duration": 0.20188208616780046
  },
  {
    "name": "syllables/13.wav",
    "offset": 86.59442176870752,
    "duration": 0.18625850340136055
  },
  {
    "name": "syllables/130.wav",
    "offset": 86.78068027210888,
    "duration": 0.24875283446712018
  },
  {
    "name": "syllables/131.wav",
    "offset": 87.02943310657601,
    "duration": 0.19408163265306122
  },
  {
    "name": "syllables/132.wav",
    "offset": 87.22351473922907,
    "duration": 0.24875283446712018
  },
  {
    "name": "syllables/133.wav",
    "offset": 87.4722675736962,
    "duration": 0.15501133786848073
  },
  {
    "name": "syllables/134.wav",
    "offset": 87.62727891156469,
    "duration": 0.2721995464852608
  },
  {
    "name": "syllables/135.wav",
    "offset": 87.89947845804994,
    "duration": 0.3346938775510204
  },
  {
    "name": "syllables/136.wav",
    "offset": 88.23417233560096,
    "duration": 0.3034467120181406
  },
  {
    "name": "syllables/137.wav",
    "offset": 88.5376190476191,
    "duration": 0.3307936507936508
  },
  {
    "name": "syllables/138.wav",
    "offset": 88.86841269841275,
    "duration": 0.15501133786848073
  },
  {
    "name": "syllables/139.wav",
    "offset": 89.02342403628124,
    "duration": 0.3893877551020408
  },
  {
    "name": "syllables/14.wav",
    "offset": 89.41281179138328,
    "duration": 0.23312925170068027
  },
  {
    "name": "syllables/140.wav",
    "offset": 89.64594104308395,
    "duration": 0.3737641723356009
  },
  {
    "name": "syllables/141.wav",
    "offset": 90.01970521541955,
    "duration": 0.2643764172335601
  },
  {
    "name": "syllables/142.wav",
    "offset": 90.28408163265311,
    "duration": 0.18625850340136055
  },
  {
    "name": "syllables/143.wav",
    "offset": 90.47034013605447,
    "duration": 0.42063492063492064
  },
  {
    "name": "syllables/144.wav",
    "offset": 90.8909750566894,
    "duration": 0.23312925170068027
  },
  {
    "name": "syllables/145.wav",
    "offset": 91.12410430839007,
    "duration": 0.29564625850340137
  },
  {
    "name": "syllables/146.wav",
    "offset": 91.41975056689347,
    "duration": 0.15891156462585035
  },
  {
    "name": "syllables/147.wav",
    "offset": 91.57866213151932,
    "duration": 0.20188208616780046
  },
  {
    "name": "syllables/148.wav",
    "offset": 91.78054421768712,
    "duration": 0.3229705215419501
  },
  {
    "name": "syllables/149.wav",
    "offset": 92.10351473922907,
    "duration": 0.2643764172335601
  },
  {
    "name": "syllables/15.wav",
    "offset": 92.36789115646263,
    "duration": 0.20188208616780046
  },
  {
    "name": "syllables/150.wav",
    "offset": 92.56977324263043,
    "duration": 0.3737641723356009
  },
  {
    "name": "syllables/151.wav",
    "offset": 92.94353741496603,
    "duration": 0.4050113378684807
  },
  {
    "name": "syllables/152.wav",
    "offset": 93.34854875283452,
    "duration": 0.34251700680272107
  },
  {
    "name": "syllables/153.wav",
    "offset": 93.69106575963724,
    "duration": 0.31517006802721087
  },
  {
    "name": "syllables/154.wav",
    "offset": 94.00623582766445,
    "duration": 0.299546485260771
  },
  {
    "name": "syllables/155.wav",
    "offset": 94.30578231292523,
    "duration": 0.20578231292517007
  },
  {
    "name": "syllables/156.wav",
    "offset": 94.5115646258504,
    "duration": 0.31126984126984125
  },
  {
    "name": "syllables/157.wav",
    "offset": 94.82283446712024,
    "duration": 0.28
  },
  {
    "name": "syllables/158.wav",
    "offset": 95.10283446712025,
    "duration": 0.23312925170068027
  },
  {
    "name": "syllables/159.wav",
    "offset": 95.33596371882092,
    "duration": 0.20578231292517007
  },
  {
    "name": "syllables/16.wav",
    "offset": 95.54174603174609,
    "duration": 0.358140589569161
  },
  {
    "name": "syllables/160.wav",
    "offset": 95.89988662131525,
    "duration": 0.17453514739229026
  },
  {
    "name": "syllables/161.wav",
    "offset": 96.07442176870754,
    "duration": 0.1784580498866213
  },
  {
    "name": "syllables/162.wav",
    "offset": 96.25287981859415,
    "duration": 0.3190702947845805
  },
  {
    "name": "syllables/163.wav",
    "offset": 96.57195011337873,
    "duration": 0.18235827664399093
  },
  {
    "name": "syllables/164.wav",
    "offset": 96.75430839002273,
    "duration": 0.21360544217687075
  },
  {
    "name": "syllables/165.wav",
    "offset": 96.9679138321996,
    "duration": 0.28
  },
  {
    "name": "syllables/166.wav",
    "offset": 97.2479138321996,
    "duration": 0.3190702947845805
  },
  {
    "name": "syllables/167.wav",
    "offset": 97.56698412698418,
    "duration": 0.1628344671201814
  },
  {
    "name": "syllables/168.wav",
    "offset": 97.72981859410436,
    "duration": 0.3893877551020408
  },
  {
    "name": "syllables/169.wav",
    "offset": 98.1192063492064,
    "duration": 0.2682993197278912
  },
  {
    "name": "syllables/17.wav",
    "offset": 98.38750566893428,
    "duration": 0.21750566893424036
  },
  {
    "name": "syllables/170.wav",
    "offset": 98.60501133786852,
    "duration": 0.4011111111111111
  },
  {
    "name": "syllables/171.wav",
    "offset": 99.00612244897962,
    "duration": 0.28
  },
  {
    "name": "syllables/172.wav",
    "offset": 99.28612244897963,
    "duration": 0.2643764172335601
  },
  {
    "name": "syllables/173.wav",
    "offset": 99.55049886621319,
    "duration": 0.18625850340136055
  },
  {
    "name": "syllables/174.wav",
    "offset": 99.73675736961455,
    "duration": 0.3737641723356009
  },
  {
    "name": "syllables/175.wav",
    "offset": 100.11052154195015,
    "duration": 0.3268934240362812
  },
  {
    "name": "syllables/176.wav",
    "offset": 100.43741496598643,
    "duration": 0.358140589569161
  },
  {
    "name": "syllables/177.wav",
    "offset": 100.7955555555556,
    "duration": 0.46750566893424034
  },
  {
    "name": "syllables/178.wav",
    "offset": 101.26306122448983,
    "duration": 0.31126984126984125
  },
  {
    "name": "syllables/179.wav",
    "offset": 101.57433106575968,
    "duration": 0.21750566893424036
  },
  {
    "name": "syllables/18.wav",
    "offset": 101.79183673469392,
    "duration": 0.3346938775510204
  },
  {
    "name": "syllables/180.wav",
    "offset": 102.12653061224493,
    "duration": 0.2604761904761905
  },
  {
    "name": "syllables/181.wav",
    "offset": 102.38700680272113,
    "duration": 0.24875283446712018
  },
  {
    "name": "syllables/182.wav",
    "offset": 102.63575963718826,
    "duration": 0.23705215419501133
  },
  {
    "name": "syllables/183.wav",
    "offset": 102.87281179138327,
    "duration": 0.24485260770975056
  },
  {
    "name": "syllables/184.wav",
    "offset": 103.11766439909302,
    "duration": 0.20188208616780046
  },
  {
    "name": "syllables/185.wav",
    "offset": 103.31954648526082,
    "duration": 0.23312925170068027
  },
  {
    "name": "syllables/186.wav",
    "offset": 103.55267573696149,
    "duration": 0.24095238095238095
  },
  {
    "name": "syllables/187.wav",
    "offset": 103.79362811791387,
    "duration": 0.34251700680272107
  },
  {
    "name": "syllables/188.wav",
    "offset": 104.13614512471659,
    "duration": 0.3268934240362812
  },
  {
    "name": "syllables/189.wav",
    "offset": 104.46303854875288,
    "duration": 0.22922902494331066
  },
  {
    "name": "syllables/19.wav",
    "offset": 104.69226757369618,
    "duration": 0.19798185941043084
  },
  {
    "name": "syllables/190.wav",
    "offset": 104.89024943310662,
    "duration": 0.2643764172335601
  },
  {
    "name": "syllables/191.wav",
    "offset": 105.15462585034018,
    "duration": 0.17063492063492064
  },
  {
    "name": "syllables/192.wav",
    "offset": 105.3252607709751,
    "duration": 0.21750566893424036
  },
  {
    "name": "syllables/193.wav",
    "offset": 105.54276643990934,
    "duration": 0.24875283446712018
  },
  {
    "name": "syllables/194.wav",
    "offset": 105.79151927437647,
    "duration": 0.2682993197278912
  },
  {
    "name": "syllables/195.wav",
    "offset": 106.05981859410436,
    "duration": 0.18235827664399093
  },
  {
    "name": "syllables/196.wav",
    "offset": 106.24217687074835,
    "duration": 0.24875283446712018
  },
  {
    "name": "syllables/197.wav",
    "offset": 106.49092970521548,
    "duration": 0.2643764172335601
  },
  {
    "name": "syllables/198.wav",
    "offset": 106.75530612244904,
    "duration": 0.3464172335600907
  },
  {
    "name": "syllables/199.wav",
    "offset": 107.10172335600913,
    "duration": 0.22727891156462585
  },
  {
    "name": "syllables/2.wav",
    "offset": 107.32900226757376,
    "duration": 0.24875283446712018
  },
  {
    "name": "syllables/20.wav",
    "offset": 107.57775510204088,
    "duration": 0.2721995464852608
  },
  {
    "name": "syllables/200.wav",
    "offset": 107.84995464852614,
    "duration": 0.20873015873015874
  },
  {
    "name": "syllables/201.wav",
    "offset": 108.0586848072563,
    "duration": 0.21750566893424036
  },
  {
    "name": "syllables/202.wav",
    "offset": 108.27619047619054,
    "duration": 0.24875283446712018
  },
  {
    "name": "syllables/203.wav",
    "offset": 108.52494331065766,
    "duration": 0.21750566893424036
  },
  {
    "name": "syllables/204.wav",
    "offset": 108.7424489795919,
    "duration": 0.34251700680272107
  },
  {
    "name": "syllables/205.wav",
    "offset": 109.08496598639462,
    "duration": 0.36986394557823127
  },
  {
    "name": "syllables/206.wav",
    "offset": 109.45482993197285,
    "duration": 0.15501133786848073
  },
  {
    "name": "syllables/207.wav",
    "offset": 109.60984126984134,
    "duration": 0.3034467120181406
  },
  {
    "name": "syllables/208.wav",
    "offset": 109.91328798185948,
    "duration": 0.15501133786848073
  },
  {
    "name": "syllables/209.wav",
    "offset": 110.06829931972797,
    "duration": 0.24095238095238095
  },
  {
    "name": "syllables/21.wav",
    "offset": 110.30925170068035,
    "duration": 0.24875283446712018
  },
  {
    "name": "syllables/210.wav",
    "offset": 110.55800453514748,
    "duration": 0.34251700680272107
  },
  {
    "name": "syllables/211.wav",
    "offset": 110.9005215419502,
    "duration": 0.3268934240362812
  },
  {
    "name": "syllables/212.wav",
    "offset": 111.22741496598648,
    "duration": 0.36594104308390024
  },
  {
    "name": "syllables/213.wav",
    "offset": 111.59335600907038,
    "duration": 0.3268934240362812
  },
  {
    "name": "syllables/214.wav",
    "offset": 111.92024943310666,
    "duration": 0.31517006802721087
  },
  {
    "name": "syllables/215.wav",
    "offset": 112.23541950113388,
    "duration": 0.28
  },
  {
    "name": "syllables/216.wav",
    "offset": 112.51541950113388,
    "duration": 0.4128344671201814
  },
  {
    "name": "syllables/217.wav",
    "offset": 112.92825396825405,
    "duration": 0.28
  },
  {
    "name": "syllables/218.wav",
    "offset": 113.20825396825406,
    "duration": 0.3073469387755102
  },
  {
    "name": "syllables/219.wav",
    "offset": 113.51560090702957,
    "duration": 0.20188208616780046
  },
  {
    "name": "syllables/22.wav",
    "offset": 113.71748299319736,
    "duration": 0.2604761904761905
  },
  {
    "name": "syllables/220.wav",
    "offset": 113.97795918367356,
    "duration": 0.3893877551020408
  },
  {
    "name": "syllables/221.wav",
    "offset": 114.3673469387756,
    "duration": 0.31517006802721087
  },
  {
    "name": "syllables/222.wav",
    "offset": 114.68251700680281,
    "duration": 0.20188208616780046
  },
  {
    "name": "syllables/223.wav",
    "offset": 114.88439909297061,
    "duration": 0.31517006802721087
  },
  {
    "name": "syllables/224.wav",
    "offset": 115.19956916099783,
    "duration": 0.3229705215419501
  },
  {
    "name": "syllables/225.wav",
    "offset": 115.52253968253977,
    "duration": 0.3268934240362812
  },
  {
    "name": "syllables/226.wav",
    "offset": 115.84943310657606,
    "duration": 0.24875283446712018
  },
  {
    "name": "syllables/227.wav",
    "offset": 116.09818594104318,
    "duration": 0.31126984126984125
  },
  {
    "name": "syllables/228.wav",
    "offset": 116.40945578231303,
    "duration": 0.31126984126984125
  },
  {
    "name": "syllables/229.wav",
    "offset": 116.72072562358288,
    "duration": 0.18625850340136055
  },
  {
    "name": "syllables/23.wav",
    "offset": 116.90698412698424,
    "duration": 0.2760997732426304
  },
  {
    "name": "syllables/230.wav",
    "offset": 117.18308390022688,
    "duration": 0.416734693877551
  },
  {
    "name": "syllables/231.wav",
    "offset": 117.59981859410443,
    "duration": 0.33859410430839004
  },
  {
    "name": "syllables/232.wav",
    "offset": 117.93841269841282,
    "duration": 0.2643764172335601
  },
  {
    "name": "syllables/233.wav",
    "offset": 118.20278911564638,
    "duration": 0.31126984126984125
  },
  {
    "name": "syllables/234.wav",
    "offset": 118.51405895691623,
    "duration": 0.28
  },
  {
    "name": "syllables/235.wav",
    "offset": 118.79405895691623,
    "duration": 0.17063492063492064
  },
  {
    "name": "syllables/236.wav",
    "offset": 118.96469387755116,
    "duration": 0.24485260770975056
  },
  {
    "name": "syllables/237.wav",
    "offset": 119.2095464852609,
    "duration": 0.2643764172335601
  },
  {
    "name": "syllables/238.wav",
    "offset": 119.47392290249446,
    "duration": 0.24875283446712018
  },
  {
    "name": "syllables/239.wav",
    "offset": 119.72267573696159,
    "duration": 0.34251700680272107
  },
  {
    "name": "syllables/24.wav",
    "offset": 120.06519274376431,
    "duration": 0.28
  },
  {
    "name": "syllables/240.wav",
    "offset": 120.34519274376431,
    "duration": 0.25267573696145124
  },
  {
    "name": "syllables/241.wav",
    "offset": 120.59786848072577,
    "duration": 0.31126984126984125
  },
  {
    "name": "syllables/242.wav",
    "offset": 120.90913832199561,
    "duration": 0.34251700680272107
  },
  {
    "name": "syllables/243.wav",
    "offset": 121.25165532879834,
    "duration": 0.1628344671201814
  },
  {
    "name": "syllables/244.wav",
    "offset": 121.41448979591851,
    "duration": 0.33859410430839004
  },
  {
    "name": "syllables/245.wav",
    "offset": 121.7530839002269,
    "duration": 0.4050113378684807
  },
  {
    "name": "syllables/246.wav",
    "offset": 122.15809523809538,
    "duration": 0.3190702947845805
  },
  {
    "name": "syllables/247.wav",
    "offset": 122.47716553287997,
    "duration": 0.33859410430839004
  },
  {
    "name": "syllables/248.wav",
    "offset": 122.81575963718835,
    "duration": 0.31126984126984125
  },
  {
    "name": "syllables/249.wav",
    "offset": 123.1270294784582,
    "duration": 0.3893877551020408
  },
  {
    "name": "syllables/25.wav",
    "offset": 123.51641723356023,
    "duration": 0.25267573696145124
  },
  {
    "name": "syllables/250.wav",
    "offset": 123.76909297052168,
    "duration": 0.19798185941043084
  },
  {
    "name": "syllables/251.wav",
    "offset": 123.96707482993212,
    "duration": 0.18235827664399093
  },
  {
    "name": "syllables/252.wav",
    "offset": 124.14943310657611,
    "duration": 0.24095238095238095
  },
  {
    "name": "syllables/253.wav",
    "offset": 124.39038548752849,
    "duration": 0.2760997732426304
  },
  {
    "name": "syllables/254.wav",
    "offset": 124.66648526077113,
    "duration": 0.3229705215419501
  },
  {
    "name": "syllables/255.wav",
    "offset": 124.98945578231307,
    "duration": 0.36594104308390024
  },
  {
    "name": "syllables/256.wav",
    "offset": 125.35539682539697,
    "duration": 0.39328798185941044
  },
  {
    "name": "syllables/257.wav",
    "offset": 125.74868480725638,
    "duration": 0.28
  },
  {
    "name": "syllables/258.wav",
    "offset": 126.02868480725638,
    "duration": 0.19798185941043084
  },
  {
    "name": "syllables/259.wav",
    "offset": 126.22666666666682,
    "duration": 0.3542403628117914
  },
  {
    "name": "syllables/26.wav",
    "offset": 126.58090702947861,
    "duration": 0.31126984126984125
  },
  {
    "name": "syllables/260.wav",
    "offset": 126.89217687074846,
    "duration": 0.3542403628117914
  },
  {
    "name": "syllables/261.wav",
    "offset": 127.24641723356025,
    "duration": 0.28
  },
  {
    "name": "syllables/262.wav",
    "offset": 127.52641723356025,
    "duration": 0.18235827664399093
  },
  {
    "name": "syllables/263.wav",
    "offset": 127.70877551020425,
    "duration": 0.28392290249433105
  },
  {
    "name": "syllables/264.wav",
    "offset": 127.99269841269857,
    "duration": 0.25657596371882085
  },
  {
    "name": "syllables/265.wav",
    "offset": 128.2492743764174,
    "duration": 0.3034467120181406
  },
  {
    "name": "syllables/266.wav",
    "offset": 128.55272108843553,
    "duration": 0.3268934240362812
  },
  {
    "name": "syllables/267.wav",
    "offset": 128.87961451247182,
    "duration": 0.24875283446712018
  },
  {
    "name": "syllables/268.wav",
    "offset": 129.12836734693894,
    "duration": 0.28
  },
  {
    "name": "syllables/269.wav",
    "offset": 129.40836734693895,
    "duration": 0.3307936507936508
  },
  {
    "name": "syllables/27.wav",
    "offset": 129.7391609977326,
    "duration": 0.34251700680272107
  },
  {
    "name": "syllables/270.wav",
    "offset": 130.08167800453532,
    "duration": 0.2721995464852608
  },
  {
    "name": "syllables/271.wav",
    "offset": 130.3538775510206,
    "duration": 0.2760997732426304
  },
  {
    "name": "syllables/272.wav",
    "offset": 130.62997732426322,
    "duration": 0.2604761904761905
  },
  {
    "name": "syllables/273.wav",
    "offset": 130.89045351473942,
    "duration": 0.4440816326530612
  },
  {
    "name": "syllables/274.wav",
    "offset": 131.33453514739247,
    "duration": 0.4050113378684807
  },
  {
    "name": "syllables/275.wav",
    "offset": 131.73954648526095,
    "duration": 0.5065759637188209
  },
  {
    "name": "syllables/276.wav",
    "offset": 132.24612244897978,
    "duration": 0.3307936507936508
  },
  {
    "name": "syllables/277.wav",
    "offset": 132.57691609977343,
    "duration": 0.46750566893424034
  },
  {
    "name": "syllables/278.wav",
    "offset": 133.04442176870768,
    "duration": 0.53
  },
  {
    "name": "syllables/279.wav",
    "offset": 133.57442176870768,
    "duration": 0.44015873015873014
  },
  {
    "name": "syllables/28.wav",
    "offset": 134.01458049886642,
    "duration": 0.3620408163265306
  },
  {
    "name": "syllables/280.wav",
    "offset": 134.37662131519295,
    "duration": 0.25657596371882085
  },
  {
    "name": "syllables/281.wav",
    "offset": 134.63319727891178,
    "duration": 0.22922902494331066
  },
  {
    "name": "syllables/282.wav",
    "offset": 134.8624263038551,
    "duration": 0.4050113378684807
  },
  {
    "name": "syllables/283.wav",
    "offset": 135.26743764172357,
    "duration": 0.4050113378684807
  },
  {
    "name": "syllables/284.wav",
    "offset": 135.67244897959205,
    "duration": 0.3034467120181406
  },
  {
    "name": "syllables/285.wav",
    "offset": 135.9758956916102,
    "duration": 0.3229705215419501
  },
  {
    "name": "syllables/286.wav",
    "offset": 136.29886621315214,
    "duration": 0.3776643990929705
  },
  {
    "name": "syllables/287.wav",
    "offset": 136.6765306122451,
    "duration": 0.3190702947845805
  },
  {
    "name": "syllables/288.wav",
    "offset": 136.99560090702968,
    "duration": 0.2682993197278912
  },
  {
    "name": "syllables/289.wav",
    "offset": 137.26390022675758,
    "duration": 0.22922902494331066
  },
  {
    "name": "syllables/29.wav",
    "offset": 137.4931292517009,
    "duration": 0.2897732426303855
  },
  {
    "name": "syllables/290.wav",
    "offset": 137.7829024943313,
    "duration": 0.3737641723356009
  },
  {
    "name": "syllables/291.wav",
    "offset": 138.1566666666669,
    "duration": 0.3229705215419501
  },
  {
    "name": "syllables/292.wav",
    "offset": 138.47963718820884,
    "duration": 0.4050113378684807
  },
  {
    "name": "syllables/293.wav",
    "offset": 138.8846485260773,
    "duration": 0.3190702947845805
  },
  {
    "name": "syllables/294.wav",
    "offset": 139.2037188208619,
    "duration": 0.4050113378684807
  },
  {
    "name": "syllables/295.wav",
    "offset": 139.60873015873037,
    "duration": 0.2760997732426304
  },
  {
    "name": "syllables/296.wav",
    "offset": 139.884829931973,
    "duration": 0.299546485260771
  },
  {
    "name": "syllables/297.wav",
    "offset": 140.18437641723378,
    "duration": 0.299546485260771
  },
  {
    "name": "syllables/298.wav",
    "offset": 140.48392290249456,
    "duration": 0.23312925170068027
  },
  {
    "name": "syllables/299.wav",
    "offset": 140.71705215419524,
    "duration": 0.23705215419501133
  },
  {
    "name": "syllables/3.wav",
    "offset": 140.95410430839024,
    "duration": 0.2721995464852608
  },
  {
    "name": "syllables/30.wav",
    "offset": 141.2263038548755,
    "duration": 0.31517006802721087
  },
  {
    "name": "syllables/300.wav",
    "offset": 141.54147392290272,
    "duration": 0.2604761904761905
  },
  {
    "name": "syllables/301.wav",
    "offset": 141.80195011337892,
    "duration": 0.22922902494331066
  },
  {
    "name": "syllables/302.wav",
    "offset": 142.03117913832224,
    "duration": 0.22922902494331066
  },
  {
    "name": "syllables/303.wav",
    "offset": 142.26040816326557,
    "duration": 0.34251700680272107
  },
  {
    "name": "syllables/304.wav",
    "offset": 142.6029251700683,
    "duration": 0.3307936507936508
  },
  {
    "name": "syllables/305.wav",
    "offset": 142.93371882086194,
    "duration": 0.3503174603174603
  },
  {
    "name": "syllables/306.wav",
    "offset": 143.2840362811794,
    "duration": 0.2760997732426304
  },
  {
    "name": "syllables/307.wav",
    "offset": 143.56013605442203,
    "duration": 0.28
  },
  {
    "name": "syllables/308.wav",
    "offset": 143.84013605442203,
    "duration": 0.20188208616780046
  },
  {
    "name": "syllables/309.wav",
    "offset": 144.04201814058985,
    "duration": 0.24095238095238095
  },
  {
    "name": "syllables/31.wav",
    "offset": 144.28297052154224,
    "duration": 0.299546485260771
  },
  {
    "name": "syllables/310.wav",
    "offset": 144.58251700680302,
    "duration": 0.25267573696145124
  },
  {
    "name": "syllables/311.wav",
    "offset": 144.83519274376448,
    "duration": 0.20188208616780046
  },
  {
    "name": "syllables/312.wav",
    "offset": 145.0370748299323,
    "duration": 0.2682993197278912
  },
  {
    "name": "syllables/313.wav",
    "offset": 145.3053741496602,
    "duration": 0.25657596371882085
  },
  {
    "name": "syllables/314.wav",
    "offset": 145.56195011337903,
    "duration": 0.24095238095238095
  },
  {
    "name": "syllables/315.wav",
    "offset": 145.80290249433142,
    "duration": 0.20970521541950113
  },
  {
    "name": "syllables/316.wav",
    "offset": 146.0126077097509,
    "duration": 0.29564625850340137
  },
  {
    "name": "syllables/317.wav",
    "offset": 146.30825396825432,
    "duration": 0.20188208616780046
  },
  {
    "name": "syllables/318.wav",
    "offset": 146.51013605442213,
    "duration": 0.16673469387755102
  },
  {
    "name": "syllables/319.wav",
    "offset": 146.67687074829968,
    "duration": 0.22142857142857142
  },
  {
    "name": "syllables/32.wav",
    "offset": 146.89829931972824,
    "duration": 0.21945578231292517
  },
  {
    "name": "syllables/320.wav",
    "offset": 147.11775510204117,
    "duration": 0.3737641723356009
  },
  {
    "name": "syllables/321.wav",
    "offset": 147.49151927437677,
    "duration": 0.3268934240362812
  },
  {
    "name": "syllables/322.wav",
    "offset": 147.81841269841306,
    "duration": 0.21360544217687075
  },
  {
    "name": "syllables/323.wav",
    "offset": 148.03201814058994,
    "duration": 0.28
  },
  {
    "name": "syllables/324.wav",
    "offset": 148.31201814058994,
    "duration": 0.25657596371882085
  },
  {
    "name": "syllables/325.wav",
    "offset": 148.56859410430877,
    "duration": 0.34251700680272107
  },
  {
    "name": "syllables/326.wav",
    "offset": 148.9111111111115,
    "duration": 0.15501133786848073
  },
  {
    "name": "syllables/327.wav",
    "offset": 149.06612244897997,
    "duration": 0.2604761904761905
  },
  {
    "name": "syllables/328.wav",
    "offset": 149.32659863945617,
    "duration": 0.34251700680272107
  },
  {
    "name": "syllables/329.wav",
    "offset": 149.6691156462589,
    "duration": 0.3503174603174603
  },
  {
    "name": "syllables/33.wav",
    "offset": 150.01943310657634,
    "duration": 0.21750566893424036
  },
  {
    "name": "syllables/330.wav",
    "offset": 150.2369387755106,
    "duration": 0.28
  },
  {
    "name": "syllables/331.wav",
    "offset": 150.5169387755106,
    "duration": 0.25267573696145124
  },
  {
    "name": "syllables/332.wav",
    "offset": 150.76961451247206,
    "duration": 0.20970521541950113
  },
  {
    "name": "syllables/333.wav",
    "offset": 150.97931972789155,
    "duration": 0.3268934240362812
  },
  {
    "name": "syllables/334.wav",
    "offset": 151.30621315192784,
    "duration": 0.3190702947845805
  },
  {
    "name": "syllables/335.wav",
    "offset": 151.62528344671242,
    "duration": 0.3268934240362812
  },
  {
    "name": "syllables/336.wav",
    "offset": 151.9521768707487,
    "duration": 0.299546485260771
  },
  {
    "name": "syllables/337.wav",
    "offset": 152.25172335600948,
    "duration": 0.3229705215419501
  },
  {
    "name": "syllables/338.wav",
    "offset": 152.57469387755143,
    "duration": 0.2604761904761905
  },
  {
    "name": "syllables/339.wav",
    "offset": 152.83517006802762,
    "duration": 0.3307936507936508
  },
  {
    "name": "syllables/34.wav",
    "offset": 153.16596371882127,
    "duration": 0.21750566893424036
  },
  {
    "name": "syllables/340.wav",
    "offset": 153.38346938775553,
    "duration": 0.18625850340136055
  },
  {
    "name": "syllables/341.wav",
    "offset": 153.56972789115687,
    "duration": 0.3620408163265306
  },
  {
    "name": "syllables/342.wav",
    "offset": 153.9317687074834,
    "duration": 0.3620408163265306
  },
  {
    "name": "syllables/343.wav",
    "offset": 154.29380952380993,
    "duration": 0.299546485260771
  },
  {
    "name": "syllables/344.wav",
    "offset": 154.5933560090707,
    "duration": 0.3737641723356009
  },
  {
    "name": "syllables/345.wav",
    "offset": 154.9671201814063,
    "duration": 0.19015873015873017
  },
  {
    "name": "syllables/346.wav",
    "offset": 155.15727891156504,
    "duration": 0.2721995464852608
  },
  {
    "name": "syllables/347.wav",
    "offset": 155.4294784580503,
    "duration": 0.34251700680272107
  },
  {
    "name": "syllables/348.wav",
    "offset": 155.77199546485303,
    "duration": 0.31126984126984125
  },
  {
    "name": "syllables/349.wav",
    "offset": 156.08326530612288,
    "duration": 0.22922902494331066
  },
  {
    "name": "syllables/35.wav",
    "offset": 156.3124943310662,
    "duration": 0.20775510204081632
  },
  {
    "name": "syllables/350.wav",
    "offset": 156.520249433107,
    "duration": 0.28
  },
  {
    "name": "syllables/351.wav",
    "offset": 156.800249433107,
    "duration": 0.3620408163265306
  },
  {
    "name": "syllables/352.wav",
    "offset": 157.16229024943354,
    "duration": 0.28
  },
  {
    "name": "syllables/353.wav",
    "offset": 157.44229024943354,
    "duration": 0.24875283446712018
  },
  {
    "name": "syllables/354.wav",
    "offset": 157.69104308390067,
    "duration": 0.2604761904761905
  },
  {
    "name": "syllables/355.wav",
    "offset": 157.95151927437686,
    "duration": 0.24875283446712018
  },
  {
    "name": "syllables/356.wav",
    "offset": 158.200272108844,
    "duration": 0.3620408163265306
  },
  {
    "name": "syllables/357.wav",
    "offset": 158.56231292517052,
    "duration": 0.3503174603174603
  },
  {
    "name": "syllables/358.wav",
    "offset": 158.91263038548797,
    "duration": 0.358140589569161
  },
  {
    "name": "syllables/359.wav",
    "offset": 159.27077097505713,
    "duration": 0.3503174603174603
  },
  {
    "name": "syllables/36.wav",
    "offset": 159.6210884353746,
    "duration": 0.19993197278911565
  },
  {
    "name": "syllables/360.wav",
    "offset": 159.8210204081637,
    "duration": 0.3190702947845805
  },
  {
    "name": "syllables/361.wav",
    "offset": 160.14009070294827,
    "duration": 0.4050113378684807
  },
  {
    "name": "syllables/37.wav",
    "offset": 160.54510204081674,
    "duration": 0.20188208616780046
  },
  {
    "name": "syllables/38.wav",
    "offset": 160.74698412698456,
    "duration": 0.2346031746031746
  },
  {
    "name": "syllables/39.wav",
    "offset": 160.98158730158772,
    "duration": 0.3600907029478458
  },
  {
    "name": "syllables/4.wav",
    "offset": 161.34167800453557,
    "duration": 0.21750566893424036
  },
  {
    "name": "syllables/40.wav",
    "offset": 161.55918367346982,
    "duration": 0.21750566893424036
  },
  {
    "name": "syllables/41.wav",
    "offset": 161.77668934240407,
    "duration": 0.19798185941043084
  },
  {
    "name": "syllables/42.wav",
    "offset": 161.9746712018145,
    "duration": 0.3346938775510204
  },
  {
    "name": "syllables/43.wav",
    "offset": 162.3093650793655,
    "duration": 0.23312925170068027
  },
  {
    "name": "syllables/44.wav",
    "offset": 162.5424943310662,
    "duration": 0.28
  },
  {
    "name": "syllables/45.wav",
    "offset": 162.8224943310662,
    "duration": 0.31126984126984125
  },
  {
    "name": "syllables/46.wav",
    "offset": 163.13376417233604,
    "duration": 0.31126984126984125
  },
  {
    "name": "syllables/47.wav",
    "offset": 163.4450340136059,
    "duration": 0.3034467120181406
  },
  {
    "name": "syllables/48.wav",
    "offset": 163.74848072562403,
    "duration": 0.31126984126984125
  },
  {
    "name": "syllables/49.wav",
    "offset": 164.05975056689388,
    "duration": 0.31126984126984125
  },
  {
    "name": "syllables/5.wav",
    "offset": 164.37102040816373,
    "duration": 0.2643764172335601
  },
  {
    "name": "syllables/50.wav",
    "offset": 164.6353968253973,
    "duration": 0.31126984126984125
  },
  {
    "name": "syllables/51.wav",
    "offset": 164.94666666666714,
    "duration": 0.3268934240362812
  },
  {
    "name": "syllables/52.wav",
    "offset": 165.27356009070343,
    "duration": 0.2682993197278912
  },
  {
    "name": "syllables/53.wav",
    "offset": 165.54185941043133,
    "duration": 0.24875283446712018
  },
  {
    "name": "syllables/54.wav",
    "offset": 165.79061224489845,
    "duration": 0.15501133786848073
  },
  {
    "name": "syllables/55.wav",
    "offset": 165.94562358276693,
    "duration": 0.15891156462585035
  },
  {
    "name": "syllables/56.wav",
    "offset": 166.10453514739277,
    "duration": 0.3034467120181406
  },
  {
    "name": "syllables/57.wav",
    "offset": 166.4079818594109,
    "duration": 0.24875283446712018
  },
  {
    "name": "syllables/58.wav",
    "offset": 166.65673469387804,
    "duration": 0.15501133786848073
  },
  {
    "name": "syllables/59.wav",
    "offset": 166.8117460317465,
    "duration": 0.3268934240362812
  },
  {
    "name": "syllables/6.wav",
    "offset": 167.1386394557828,
    "duration": 0.2643764172335601
  },
  {
    "name": "syllables/60.wav",
    "offset": 167.40301587301636,
    "duration": 0.20188208616780046
  },
  {
    "name": "syllables/61.wav",
    "offset": 167.60489795918417,
    "duration": 0.29564625850340137
  },
  {
    "name": "syllables/62.wav",
    "offset": 167.90054421768758,
    "duration": 0.18625850340136055
  },
  {
    "name": "syllables/63.wav",
    "offset": 168.08680272108893,
    "duration": 0.21750566893424036
  },
  {
    "name": "syllables/64.wav",
    "offset": 168.30430839002318,
    "duration": 0.21750566893424036
  },
  {
    "name": "syllables/65.wav",
    "offset": 168.52181405895743,
    "duration": 0.21750566893424036
  },
  {
    "name": "syllables/66.wav",
    "offset": 168.73931972789168,
    "duration": 0.17063492063492064
  },
  {
    "name": "syllables/67.wav",
    "offset": 168.9099546485266,
    "duration": 0.18625850340136055
  },
  {
    "name": "syllables/68.wav",
    "offset": 169.09621315192794,
    "duration": 0.24875283446712018
  },
  {
    "name": "syllables/69.wav",
    "offset": 169.34496598639507,
    "duration": 0.23312925170068027
  },
  {
    "name": "syllables/7.wav",
    "offset": 169.57809523809576,
    "duration": 0.20188208616780046
  },
  {
    "name": "syllables/70.wav",
    "offset": 169.77997732426357,
    "duration": 0.19798185941043084
  },
  {
    "name": "syllables/71.wav",
    "offset": 169.977959183674,
    "duration": 0.15501133786848073
  },
  {
    "name": "syllables/72.wav",
    "offset": 170.13297052154246,
    "duration": 0.28
  },
  {
    "name": "syllables/73.wav",
    "offset": 170.41297052154246,
    "duration": 0.20188208616780046
  },
  {
    "name": "syllables/74.wav",
    "offset": 170.61485260771028,
    "duration": 0.20188208616780046
  },
  {
    "name": "syllables/75.wav",
    "offset": 170.8167346938781,
    "duration": 0.24875283446712018
  },
  {
    "name": "syllables/76.wav",
    "offset": 171.06548752834522,
    "duration": 0.20188208616780046
  },
  {
    "name": "syllables/77.wav",
    "offset": 171.26736961451303,
    "duration": 0.23312925170068027
  },
  {
    "name": "syllables/78.wav",
    "offset": 171.50049886621372,
    "duration": 0.18625850340136055
  },
  {
    "name": "syllables/79.wav",
    "offset": 171.68675736961507,
    "duration": 0.2643764172335601
  },
  {
    "name": "syllables/8.wav",
    "offset": 171.95113378684863,
    "duration": 0.21750566893424036
  },
  {
    "name": "syllables/80.wav",
    "offset": 172.16863945578288,
    "duration": 0.29564625850340137
  },
  {
    "name": "syllables/81.wav",
    "offset": 172.4642857142863,
    "duration": 0.3503174603174603
  },
  {
    "name": "syllables/82.wav",
    "offset": 172.81460317460375,
    "duration": 0.18235827664399093
  },
  {
    "name": "syllables/83.wav",
    "offset": 172.99696145124773,
    "duration": 0.15501133786848073
  },
  {
    "name": "syllables/84.wav",
    "offset": 173.1519727891162,
    "duration": 0.15501133786848073
  },
  {
    "name": "syllables/85.wav",
    "offset": 173.30698412698467,
    "duration": 0.24485260770975056
  },
  {
    "name": "syllables/86.wav",
    "offset": 173.55183673469443,
    "duration": 0.29564625850340137
  },
  {
    "name": "syllables/87.wav",
    "offset": 173.84748299319784,
    "duration": 0.28
  },
  {
    "name": "syllables/88.wav",
    "offset": 174.12748299319784,
    "duration": 0.34251700680272107
  },
  {
    "name": "syllables/89.wav",
    "offset": 174.47000000000057,
    "duration": 0.21750566893424036
  },
  {
    "name": "syllables/9.wav",
    "offset": 174.68750566893482,
    "duration": 0.24875283446712018
  },
  {
    "name": "syllables/90.wav",
    "offset": 174.93625850340194,
    "duration": 0.3268934240362812
  },
  {
    "name": "syllables/91.wav",
    "offset": 175.26315192743823,
    "duration": 0.358140589569161
  },
  {
    "name": "syllables/92.wav",
    "offset": 175.6212925170074,
    "duration": 0.24875283446712018
  },
  {
    "name": "syllables/93.wav",
    "offset": 175.87004535147452,
    "duration": 0.21750566893424036
  },
  {
    "name": "syllables/94.wav",
    "offset": 176.08755102040877,
    "duration": 0.29564625850340137
  },
  {
    "name": "syllables/95.wav",
    "offset": 176.38319727891218,
    "duration": 0.2760997732426304
  },
  {
    "name": "syllables/96.wav",
    "offset": 176.6592970521548,
    "duration": 0.23117913832199546
  },
  {
    "name": "syllables/97.wav",
    "offset": 176.89047619047682,
    "duration": 0.25657596371882085
  },
  {
    "name": "syllables/98.wav",
    "offset": 177.14705215419565,
    "duration": 0.23507936507936508
  },
  {
    "name": "syllables/99.wav",
    "offset": 177.38213151927502,
    "duration": 0.27414965986394557
  }
]
