<svg width="209" height="54" viewBox="0 0 209 54" fill="none" xmlns="http://www.w3.org/2000/svg">
<path d="M206.483 2L202.814 51.8793H8.45268L2.63595 2H206.483Z" fill="black" stroke="black" stroke-width="4"/>
</svg>
