<svg width="126" height="108" viewBox="0 0 126 108" fill="none" xmlns="http://www.w3.org/2000/svg">
<path d="M9.06017 106.068L9.12344 107H10.0579H114.933H115.858L115.93 106.077L123.997 2.07734L124.081 1H123H3H1.92984L2.00229 2.06771L9.06017 106.068Z" fill="#2F3746" stroke="black" stroke-width="2"/>
<path d="M120.838 4L113.081 103.999H11.9267L5.14033 4H120.838Z" fill="#1E2530" stroke="#A986F0" stroke-width="4" stroke-linecap="round"/>
</svg>
