<?xml version="1.0" encoding="UTF-8" standalone="no"?>
<!-- Uploaded to: SVG Repo, www.svgrepo.com, Generator: SVG Repo Mixer Tools -->

<svg
   width="800"
   height="619.27789"
   viewBox="0 -28.5 256 198.16893"
   version="1.1"
   preserveAspectRatio="xMidYMid"
   id="svg1"
   sodipodi:docname="community.svg"
   inkscape:version="1.3 (0e150ed, 2023-07-21)"
   xmlns:inkscape="http://www.inkscape.org/namespaces/inkscape"
   xmlns:sodipodi="http://sodipodi.sourceforge.net/DTD/sodipodi-0.dtd"
   xmlns="http://www.w3.org/2000/svg"
   xmlns:svg="http://www.w3.org/2000/svg">
  <defs
     id="defs1" />
  <sodipodi:namedview
     id="namedview1"
     pagecolor="#ffffff"
     bordercolor="#000000"
     borderopacity="0.25"
     inkscape:showpageshadow="2"
     inkscape:pageopacity="0.0"
     inkscape:pagecheckerboard="0"
     inkscape:deskcolor="#d1d1d1"
     inkscape:zoom="0.295"
     inkscape:cx="400"
     inkscape:cy="311.86441"
     inkscape:window-width="1312"
     inkscape:window-height="449"
     inkscape:window-x="0"
     inkscape:window-y="38"
     inkscape:window-maximized="0"
     inkscape:current-layer="g1" />
  <g
     id="g1"
     transform="translate(2.1578747e-7,-28.5)">
    <path
       d="m 254.91195,164.95572 c -22.16893,16.5759 -43.6732,26.63233 -64.81533,33.21321 -5.23508,-7.1771 -9.86623,-14.82759 -13.87308,-22.84797 7.6312,-2.90003 14.96025,-6.4784 21.88679,-10.653 -1.81218,-1.35737 -3.60399,-2.77651 -5.35581,-4.2367 -41.61959,19.70193 -87.38711,19.70193 -129.50993,0 -1.73146,1.46019 -3.523629,2.87933 -5.355803,4.2367 6.906185,4.15424 14.215232,7.73261 21.846427,10.6323 -4.006851,8.04108 -8.657999,15.67087 -13.873081,22.84832 C 44.740363,191.5677 23.25602,181.51092 1.0871107,164.95572 -3.4433191,116.40081 5.6175229,67.146514 39.042058,16.637661 55.613395,8.8639912 73.352607,3.2084988 91.89719,0 c 2.295394,4.1131811 5.013652,9.6454991 6.845826,14.046438 19.329954,-2.961448 38.840974,-2.961448 58.533084,0 C 159.10862,9.6454991 161.76652,4.1131811 164.04156,0 c 18.52458,3.2084988 36.24344,8.8432867 52.81478,16.596603 28.97475,43.26964 43.37141,92.071597 38.05561,148.359117 z M 108.48853,108.9149 C 108.70996,94.518943 98.340506,82.714559 85.473875,82.714559 c -12.86628,0 -23.014653,11.825088 -23.014653,26.200341 0,14.37526 10.369806,26.17999 23.014653,26.17999 12.866631,0 23.034655,-11.80473 23.014655,-26.17999 z m 85.05136,0 c 0.22143,-14.395957 -10.14837,-26.200341 -23.01465,-26.200341 -12.86663,0 -23.01466,11.825088 -23.01466,26.200341 0,14.37526 10.36981,26.17999 23.01466,26.17999 12.86628,0 23.01465,-11.80473 23.01465,-26.17999 z"
       fill="#5865F2"
       fill-rule="nonzero"
       id="path1"
       style="fill:#ffffff;fill-opacity:1"
       sodipodi:nodetypes="ccccccccccccccccccsssccsssc" />
  </g>
</svg>
