<svg width="29" height="29" viewBox="0 0 29 29" fill="none" xmlns="http://www.w3.org/2000/svg">
<g clip-path="url(#clip0_104_10)">
<path fill-rule="evenodd" clip-rule="evenodd" d="M12 28.999L12.22 25.686L28.603 24.593V28.999H12ZM24.196 10.128L18.1 3.50101L20.662 0.850006H22.429L27.289 5.71001L26.847 7.25601L24.196 10.128ZM6.40597 27.918H0.219971V21.512L16.464 5.47001L22.871 11.675L6.40597 27.918Z" fill="white"/>
</g>
<defs>
<clipPath id="clip0_104_10">
<rect width="29" height="29" fill="white"/>
</clipPath>
</defs>
</svg>
