<svg width="34" height="38" viewBox="0 0 34 38" fill="none" xmlns="http://www.w3.org/2000/svg">
<g clip-path="url(#clip0_33_84)">
<path fill-rule="evenodd" clip-rule="evenodd" d="M0.320312 37.9589L4.79949 5.13794L3.38489 0.16478L30.8942 1.15934L29.5505 6.38089L33.7972 34.0273L25.5457 34.8508L23.424 10.1108L13.4692 10.3595L11.7541 37.0327L0.320312 37.9589Z" fill="#000000"/>
</g>
<defs>
<clipPath id="clip0_33_84">
<rect width="34" height="38" fill="white"/>
</clipPath>
</defs>
</svg>
