<svg width="120" height="104" viewBox="0 0 120 104" fill="none" xmlns="http://www.w3.org/2000/svg">
<path d="M117.838 2L110.081 101.999H8.92669L2.14033 2H117.838Z" fill="#212B37" stroke="#3B434F" stroke-width="4" stroke-linecap="round"/>
</svg>
